{
    "product": [
        {
            "id": 1,
            "name": "KRK Classic 5 set met monpads en kabels",
            "price": 311,
            "image": "https://picsum.photos/200/200"
        },
        {
            "id": 2,
            "name": "Adam A7V actieve studiomonitor (per stuk)",
            "price": 699,
            "image": "https://picsum.photos/200/200"
        },
        {
            "id": 3,
            "name": "Hercules DJMonitor 32 actieve studiomonitors (set van twee)",
            "price": 79,
            "image": "https://picsum.photos/200/200"
        },
        {
            "id": 4,
            "name": "Presonus Eris E3.5 actieve studiomonitoren (2 stuks)",
            "price": 95,
            "image": "https://picsum.photos/200/200"
        },
        {
            "id": 5,
            "name": "KRK Classic 8 set met monpads en kabels",
            "price": 467,
            "image": "https://picsum.photos/200/200"
        },
        {
            "id": 6,
            "name": "Devine RX-8A Black (2x) studiomonitoren",
            "price": 358,
            "image": "https://picsum.photos/200/200"
        },
        {
            "id": 7,
            "name": "Yamaha HS5 Limited Edition Grey actieve studiomonitor (per stuk)",
            "price": 179,
            "image": "https://picsum.photos/200/200"
        },
        {
            "id": 8,
            "name": "KRK Rokit RP5 G4 actieve studiomonitor (per stuk)",
            "price": 179,
            "image": "https://picsum.photos/200/200"
        },
        {
            "id": 9,
            "name": "Focal Alpha 65 Evo actieve studiomonitor (per stuk)",
            "price": 371,
            "image": "https://picsum.photos/200/200"
        },
        {
            "id": 10,
            "name": "Hercules DJ Monitor 32 set + Devine MON Pad 01 panelen",
            "price": 100,
            "image": "https://picsum.photos/200/200"
        }
    ]
}